Lesson 4 Analyze Spatial: sf | Reproducible Reporting with R (R³) for marine ecosystem indicators
…
# convert to tibble for nicer printing
as_tibble(states)

## # A tibble: 58 x 11
##    STATEFP STATENS AFFGEOID GEOID STUSPS NAME  LSAD    ALAND  AWATER region
##    <chr>   <chr>   <chr>    <chr> <chr>  <chr> <chr>   <dbl>   <dbl> <chr> 
##  1 06      017797… 0400000… 06    CA     Cali… 00    4.03e11 2.05e10 West  
##  2 11      017023… 0400000… 11    DC     Dist… 00    1.58e 8 1.86e 7 North…
##  3 12      002944… 0400000… 12    FL     Flor… 00    1.39e11 3.14e10 South…
##  4 13      017053… 0400000… 13    GA     Geor… 00    1.49e11 4.95e 9 South…
##  5 16      017797… 0400000… 16    ID     Idaho 00    2.14e11 2.40e 9 West  
##  6 17      017797… 0400000… 17    IL     Illi… 00    1.44e11 6.20e 9 Midwe…
##  7 19      017797… 0400000… 19    IA     Iowa  00    1.45e11 1.08e 9 Midwe…
##  8 21      017797… 0400000… 21    KY     Kent… 00    1.02e11 2.39e 9 South…
##  9 22      016295… 0400000… 22    LA     Loui… 00    1.12e11 2.38e10 South…
## 10 24      017149… 0400000… 24    MD     Mary… 00    2.51e10 6.98e 9 North…
## # … with 48 more rows, and 1 more variable: geometry <MULTIPOLYGON [°]>
…
